{
  "project_info": {
    "project_number": "857432878563",
    "firebase_url": "https://pixalivefcm.firebaseio.com",
    "project_id": "pixalivefcm",
    "storage_bucket": "pixalivefcm.appspot.com"
  },
  "client": [
    {
      "client_info": {
        "mobilesdk_app_id": "1:857432878563:android:485e8f2f30f6af58eb04d6",
        "android_client_info": {
          "package_name": "com.pixalive.interview"
        }
      },
      "oauth_client": [
        {
          "client_id": "857432878563-dblmcqths1ls91nsvcisdsng7204lp3v.apps.googleusercontent.com",
          "client_type": 1,
          "android_info": {
            "package_name": "com.pixalive.interview",
            "certificate_hash": "16c17158bc1f64284eebf7159885afa0a8d1b734"
          }
        },
        {
          "client_id": "857432878563-0h60h6ac80g95gh6495kl6et4augqfs1.apps.googleusercontent.com",
          "client_type": 3
        }
      ],
      "api_key": [
        {
          "current_key": "AIzaSyCaVVQqp2Q6cErtJmqpqkOkUDv4WamQWyY"
        }
      ],
      "services": {
        "appinvite_service": {
          "other_platform_oauth_client": [
            {
              "client_id": "857432878563-0h60h6ac80g95gh6495kl6et4augqfs1.apps.googleusercontent.com",
              "client_type": 3
            }
          ]
        }
      }
    }
  ],
  "configuration_version": "1"
}